module socialnetwork-rest-api

go 1.15

require (
	github.com/dgrijalva/jwt-go v3.2.0+incompatible
	github.com/joho/godotenv v1.3.0
	github.com/labstack/echo/v4 v4.1.17
	github.com/labstack/gommon v0.3.0
	github.com/mattn/go-sqlite3 v1.14.6
	golang.org/x/crypto v0.0.0-20201221181555-eec23a3978ad
	golang.org/x/net v0.0.0-20210119194325-5f4716e94777 // indirect
	golang.org/x/sys v0.0.0-20210124154548-22da62e12c0c // indirect
	golang.org/x/text v0.3.5 // indirect
)
